Snap Political Ads Analysis
…
I then summarise the date to count the number of campaigns per state per month which target a particular target audience. Each of these rows is given an id.

snap_unnested |>
  summarise(
      .by = c(STATE_INC,TARGET,S_MONTH),
      TOTAL = n()) |>
  mutate(
    id = row_number()) -> snap_tidy

snap_tidy

# A tibble: 2,065 × 5
   STATE_INC  TARGET                                S_MONTH TOTAL    id
   <chr>      <chr>                                 <ord>   <int> <int>
 1 California Advocates & Activists                 Sep        20     1
 2 California Bookworms & Avid Readers              Sep        20     2
 3 California Collegiates                           Sep        20     3
 4 California Investors & Entrepreneurs             Sep        20     4
 5 California Money Minders                         Sep        20     5
 6 California News Watchers                         Sep        20     6
 7 California Philanthropists                       Sep        20     7
 8 California TV Network Viewers (CNN)              Sep        20     8
 9 California TV Network Viewers (FOX News Channel) Sep        20     9
10 California TV Network Viewers (MSNBC)            Sep        20    10
# ℹ 2,055 more rows
Data Summaries

Working with the tidied dataset, however, can be misleading. Unnesting the states and interests can lead to an inflated counts of total ads. In the following summaries, I use only the unnested states data to count the number of campaigns in which a state was targeted. These counts are not mutually exclusive; that is, North Carolina and Arizona may both be included as in a single campaign’s targeting parameters. However, this summary still provides a useful yardstick to determine relative importance of states.

First, the count of a state’s inclusion in targeting parameters.

snap_sm |>
  group_by(STATE_INC) |>
  summarise(
    COUNT = n()) |>
  arrange(-COUNT) -> state_count

state_count

# A tibble: 51 × 2
   STATE_INC      COUNT
   <chr>          <int>
 1 North Carolina   182
 2 Arizona          145
 3 Georgia          138
 4 Florida          121
 5 Michigan         118
 6 Pennsylvania     116
 7 Wisconsin         93
 8 Virginia          70
 9 Maine             69
10 Iowa              66
# ℹ 41 more rows

Second, the count of a state’s inclusion in targeting parameters, per month.

snap_sm |>
  group_by(STATE_INC, S_MONTH)|>
  summarise(
    COUNT = n()) |>
  arrange(-COUNT) -> sm_count

sm_count

# A tibble: 297 × 3
# Groups:   STATE_INC [51]
   STATE_INC      S_MONTH COUNT
   <chr>          <ord>   <int>
 1 North Carolina Sep        70
 2 Arizona        Oct        41
 3 Michigan       Sep        38
 4 Pennsylvania   Sep        37
 5 North Carolina Oct        36
 6 Georgia        Nov        35
 7 Wisconsin      Oct        30
 8 Florida        Oct        29
 9 Arizona        Aug        28
10 Georgia        Dec        25
# ℹ 287 more rows
…
Turning back to the tidied data, which includes states and audiences unnested, the following shows the total count of audience interests targeted in a particular state, in a particular month. The volume and variety of targeting parameters are quite high:

snap_tidy |>
  group_by(STATE_INC, S_MONTH) |>
  summarise(TOTAL = sum(TOTAL)) |>
  arrange(-TOTAL) -> sm_sum

sm_sum

# A tibble: 297 × 3
# Groups:   STATE_INC [51]
   STATE_INC      S_MONTH TOTAL
   <chr>          <ord>   <int>
 1 Arizona        Oct       736
 2 Pennsylvania   Sep       434
 3 Wisconsin      Oct       386
 4 Michigan       Sep       380
 5 Florida        Mar       258
 6 Florida        Feb       237
 7 Arizona        Sep       231
 8 North Carolina Oct       218
 9 California     Sep       204
10 Georgia        Nov       159
# ℹ 287 more rows

Below, I aggregate based on audience interest per month. We can see that “Political News Watchers”, “Green Living Enthusiasts”, “Bookworms & Avid Readers”, and “Outdoor & Nature Enthusiasts” were the most included this month:

snap_tidy |>
  group_by(TARGET, S_MONTH) |>
  summarise(
    SUM = sum(TOTAL)) |>
  arrange(-SUM) -> tm_sum

tm_sum

# A tibble: 451 × 3
# Groups:   TARGET [189]
   TARGET                       S_MONTH   SUM
   <chr>                        <ord>   <int>
 1 Political News Watchers      Feb       420
 2 Green Living Enthusiasts     Feb       414
 3 Bookworms & Avid Readers     Feb       408
 4 Outdoor & Nature Enthusiasts Feb       408
 5 Political News Watchers      Aug       293
 6 Advocates & Activists        Apr       176
 7 Political News Watchers      Apr       176
 8 Political News Watchers      Jul       151
 9 Advocates & Activists        Jul       150
10 TV Network Viewers (CNN)     Jul       143
# ℹ 441 more rows

And here, I aggregate based on audience interest per state. We can see that “Political News Watchers” and “Advocates & Activists” were the most-included in Arizona over the year.

snap_tidy |>
  group_by(TARGET, STATE_INC) |>
  summarise(
    SUM = sum(TOTAL)) |>
  arrange(-SUM) -> ts_sum

ts_sum

# A tibble: 1,336 × 3
# Groups:   TARGET [189]
   TARGET                  STATE_INC        SUM
   <chr>                   <chr>          <int>
 1 Political News Watchers Arizona           71
 2 Advocates & Activists   Arizona           66
 3 Political News Watchers Pennsylvania      63
 4 Political News Watchers Michigan          61
 5 Political News Watchers North Carolina    61
 6 Political News Watchers Georgia           60
 7 Advocates & Activists   Michigan          59
 8 Advocates & Activists   North Carolina    57
 9 Political News Watchers Maine             57
10 Advocates & Activists   Georgia           55
# ℹ 1,326 more rows
…
